k	Avg_T1_f	Avg_T1_f_aprox	Avg_T2_f	Avg_T2_f_aprox	Std_T1_f	Std_T1_f_aprox	Std_T2_f	Std_T2_f_aprox	IC_T1_f	IC_T1_f_aprox	IC_T2_f	IC_T2_f_aprox
0.1	17	11.98	1.98	12.16	4.899	5.3433	1.9845	7.0808	1.3579	1.4811	0.55008	1.9627
0.2	17	13.48	1.98	10.2	4.899	5.2069	1.9845	6.1212	1.3579	1.4433	0.55008	1.6967
0.3	17	12.32	1.98	10.18	4.899	4.9133	1.9845	6.1269	1.3579	1.3619	0.55008	1.6983
0.4	17	13.12	1.98	10	4.899	5.0735	1.9845	6.7067	1.3579	1.4063	0.55008	1.859
0.5	17	12.06	1.98	9.56	4.899	5.5454	1.9845	5.7788	1.3579	1.5371	0.55008	1.6018
0.6	17	12.24	1.98	11	4.899	4.9262	1.9845	7.0653	1.3579	1.3655	0.55008	1.9584
0.7	17	12.62	1.98	8.88	4.899	3.7247	1.9845	4.9348	1.3579	1.0324	0.55008	1.3679
0.8	17	11.86	1.98	9.98	4.899	4.0407	1.9845	4.7702	1.3579	1.12	0.55008	1.3222
0.9	17	14.46	1.98	8.54	4.899	5.5299	1.9845	5.8001	1.3579	1.5328	0.55008	1.6077
1	17	14.22	1.98	8.9	4.899	4.8415	1.9845	5.493	1.3579	1.342	0.55008	1.5226
1.1	17	14.16	1.98	11.12	4.899	5.3618	1.9845	7.1333	1.3579	1.4862	0.55008	1.9772
1.2	17	14.9	1.98	10.04	4.899	4.2052	1.9845	6.3694	1.3579	1.1656	0.55008	1.7655
1.3	17	13.1	1.98	10.46	4.899	4.1318	1.9845	5.2885	1.3579	1.1453	0.55008	1.4659
1.4	17	12.8	1.98	10.78	4.899	4.7164	1.9845	7.3047	1.3579	1.3073	0.55008	2.0248
1.5	17	12.2	1.98	11.02	4.899	4.4032	1.9845	5.2586	1.3579	1.2205	0.55008	1.4576
1.6	17	13.68	1.98	9.7	4.899	4.8883	1.9845	5.8143	1.3579	1.355	0.55008	1.6116
1.7	17	13.92	1.98	11.5	4.899	4.5752	1.9845	6.4151	1.3579	1.2682	0.55008	1.7782
1.8	17	16.16	1.98	9.8	4.899	5.223	1.9845	6.1578	1.3579	1.4477	0.55008	1.7069
1.9	17	12.66	1.98	12.08	4.899	5.2474	1.9845	6.7517	1.3579	1.4545	0.55008	1.8715
2	17	15.14	1.98	11.44	4.899	5.8659	1.9845	6.7011	1.3579	1.6259	0.55008	1.8574
2.1	17	14.04	1.98	10.94	4.899	4.7076	1.9845	5.381	1.3579	1.3049	0.55008	1.4915
2.2	17	12.24	1.98	10.7	4.899	3.6509	1.9845	5.4445	1.3579	1.012	0.55008	1.5091
2.3	17	13.38	1.98	9.68	4.899	5.0986	1.9845	5.6548	1.3579	1.4133	0.55008	1.5674
2.4	17	12.04	1.98	10.5	4.899	4.0806	1.9845	6.092	1.3579	1.1311	0.55008	1.6886
2.5	17	10.8	1.98	11.96	4.899	4.9239	1.9845	7.941	1.3579	1.3648	0.55008	2.2011
2.6	17	12.14	1.98	10.24	4.899	4.6643	1.9845	6.5014	1.3579	1.2929	0.55008	1.8021
2.7	17	12.28	1.98	9.9	4.899	4.209	1.9845	5.5705	1.3579	1.1667	0.55008	1.5441
2.8	17	13.12	1.98	10.14	4.899	4.9924	1.9845	7.3318	1.3579	1.3838	0.55008	2.0323
2.9	17	12.46	1.98	11.14	4.899	5.1753	1.9845	7.9308	1.3579	1.4345	0.55008	2.1983
3	17	12.28	1.98	12.2	4.899	5.0185	1.9845	7.8999	1.3579	1.3911	0.55008	2.1897
3.1	17	12.62	1.98	11.08	4.899	5.2329	1.9845	7.7508	1.3579	1.4505	0.55008	2.1484
3.2	17	14.08	1.98	9.9	4.899	4.3276	1.9845	6.112	1.3579	1.1996	0.55008	1.6942
3.3	17	12.46	1.98	9.88	4.899	5.4294	1.9845	6.3812	1.3579	1.5049	0.55008	1.7688
3.4	17	11.84	1.98	11	4.899	4.846	1.9845	7.0884	1.3579	1.3433	0.55008	1.9648
3.5	17	12.34	1.98	10.06	4.899	4.3359	1.9845	5.6076	1.3579	1.2019	0.55008	1.5544
3.6	17	12.72	1.98	11.5	4.899	4.071	1.9845	6.3124	1.3579	1.1284	0.55008	1.7497
3.7	17	12.6	1.98	11.36	4.899	4.6114	1.9845	6.7816	1.3579	1.2782	0.55008	1.8798
3.8	17	11.92	1.98	10.2	4.899	4.2945	1.9845	5.8519	1.3579	1.1904	0.55008	1.6221
3.9	17	13.24	1.98	10.78	4.899	5.1013	1.9845	6.3512	1.3579	1.414	0.55008	1.7605
4	17	10.92	1.98	12.08	4.899	4.6416	1.9845	7.2389	1.3579	1.2866	0.55008	2.0065
4.1	17	10.7	1.98	11.4	4.899	4.5502	1.9845	6.1743	1.3579	1.2612	0.55008	1.7114
4.2	17	13.8	1.98	9.1	4.899	5.7357	1.9845	5.9565	1.3579	1.5898	0.55008	1.6511
4.3	17	12.84	1.98	10.2	4.899	5.2308	1.9845	5.3946	1.3579	1.4499	0.55008	1.4953
4.4	17	11.8	1.98	10.58	4.899	4.1748	1.9845	6.5624	1.3579	1.1572	0.55008	1.819
4.5	17	14.08	1.98	8.74	4.899	5.0663	1.9845	5.7386	1.3579	1.4043	0.55008	1.5906
4.6	17	11.8	1.98	9.82	4.899	4.5759	1.9845	6.0599	1.3579	1.2684	0.55008	1.6797
4.7	17	12.64	1.98	8.98	4.899	3.7294	1.9845	4.4101	1.3579	1.0337	0.55008	1.2224
4.8	17	12.38	1.98	10	4.899	5.1977	1.9845	4.9775	1.3579	1.4407	0.55008	1.3797
4.9	17	12.4	1.98	9.88	4.899	5.1389	1.9845	6.1632	1.3579	1.4244	0.55008	1.7084
5	17	12.82	1.98	9.82	4.899	4.8179	1.9845	7.436	1.3579	1.3354	0.55008	2.0611
