k	Comp_ratio	Avg_acc_f	Avg_acc_f_aprox	Std_acc_f	Std_acc_f_aprox	IC_acc_f	IC_acc_f_aprox	Avg_pre_f	Avg_pre_f_aprox	Std_pre_f	Std_pre_f_aprox	IC_pre_f	IC_pre_f_aprox	Avg_rec_f	Avg_rec_f_aprox	Std_rec_f	Std_rec_f_aprox	IC_rec_f	IC_rec_f_aprox
0.1	-0.98614	0.75026	0.76947	0.049625	0.053908	0.013755	0.014942	0.67965	0.70133	0.056527	0.066033	0.015669	0.018303	0.94649	0.9427	0.053636	0.052555	0.014867	0.014568
0.2	-0.87248	0.75026	0.75684	0.049625	0.071835	0.013755	0.019912	0.67965	0.68946	0.056527	0.076234	0.015669	0.021131	0.94649	0.92973	0.053636	0.13889	0.014867	0.038498
0.3	-0.63923	0.75026	0.77342	0.049625	0.045292	0.013755	0.012554	0.67965	0.71254	0.056527	0.072668	0.015669	0.020143	0.94649	0.92973	0.053636	0.079315	0.014867	0.021985
0.4	-0.55611	0.75026	0.765	0.049625	0.058119	0.013755	0.01611	0.67965	0.71052	0.056527	0.081218	0.015669	0.022512	0.94649	0.91676	0.053636	0.090192	0.014867	0.025
0.5	-0.32508	0.75026	0.76474	0.049625	0.056743	0.013755	0.015728	0.67965	0.69707	0.056527	0.068466	0.015669	0.018978	0.94649	0.9427	0.053636	0.047802	0.014867	0.01325
0.6	-0.20965	0.75026	0.73763	0.049625	0.068314	0.013755	0.018936	0.67965	0.68155	0.056527	0.11561	0.015669	0.032047	0.94649	0.89297	0.053636	0.18772	0.014867	0.052034
0.7	-0.046544	0.75026	0.71763	0.049625	0.06768	0.013755	0.01876	0.67965	0.65375	0.056527	0.07572	0.015669	0.020989	0.94649	0.93676	0.053636	0.04251	0.014867	0.011783
0.8	0.066515	0.75026	0.74526	0.049625	0.064884	0.013755	0.017985	0.67965	0.68842	0.056527	0.082396	0.015669	0.022839	0.94649	0.91568	0.053636	0.094676	0.014867	0.026243
0.9	0.15995	0.75026	0.755	0.049625	0.063627	0.013755	0.017636	0.67965	0.70512	0.056527	0.086602	0.015669	0.024005	0.94649	0.9	0.053636	0.067595	0.014867	0.018736
1	0.25516	0.75026	0.76053	0.049625	0.061487	0.013755	0.017043	0.67965	0.71594	0.056527	0.087669	0.015669	0.024301	0.94649	0.8827	0.053636	0.078675	0.014867	0.021808
1.1	0.33907	0.75026	0.74026	0.049625	0.060315	0.013755	0.016719	0.67965	0.68723	0.056527	0.087897	0.015669	0.024364	0.94649	0.90919	0.053636	0.077367	0.014867	0.021445
1.2	0.39785	0.75026	0.74526	0.049625	0.058649	0.013755	0.016257	0.67965	0.69908	0.056527	0.076379	0.015669	0.021171	0.94649	0.87405	0.053636	0.10512	0.014867	0.029137
1.3	0.46679	0.75026	0.74711	0.049625	0.056534	0.013755	0.015671	0.67965	0.70427	0.056527	0.08558	0.015669	0.023721	0.94649	0.87784	0.053636	0.10492	0.014867	0.029083
1.4	0.50885	0.75026	0.73579	0.049625	0.057436	0.013755	0.015921	0.67965	0.68641	0.056527	0.073204	0.015669	0.020291	0.94649	0.88216	0.053636	0.096874	0.014867	0.026852
1.5	0.56153	0.75026	0.72816	0.049625	0.054648	0.013755	0.015148	0.67965	0.68462	0.056527	0.067907	0.015669	0.018823	0.94649	0.85405	0.053636	0.12712	0.014867	0.035236
1.6	0.58447	0.75026	0.72921	0.049625	0.050584	0.013755	0.014021	0.67965	0.68222	0.056527	0.077044	0.015669	0.021356	0.94649	0.87784	0.053636	0.084633	0.014867	0.023459
1.7	0.62477	0.75026	0.74	0.049625	0.05419	0.013755	0.015021	0.67965	0.71376	0.056527	0.091033	0.015669	0.025233	0.94649	0.83135	0.053636	0.10383	0.014867	0.028779
1.8	0.66012	0.75026	0.73605	0.049625	0.0547	0.013755	0.015162	0.67965	0.68555	0.056527	0.070603	0.015669	0.01957	0.94649	0.88378	0.053636	0.084634	0.014867	0.023459
1.9	0.67639	0.75026	0.72868	0.049625	0.040218	0.013755	0.011148	0.67965	0.69178	0.056527	0.068351	0.015669	0.018946	0.94649	0.83568	0.053636	0.10684	0.014867	0.029614
2	0.69639	0.75026	0.73237	0.049625	0.039662	0.013755	0.010994	0.67965	0.70573	0.056527	0.067849	0.015669	0.018807	0.94649	0.80703	0.053636	0.11724	0.014867	0.032497
2.1	0.72338	0.75026	0.70395	0.049625	0.053315	0.013755	0.014778	0.67965	0.66727	0.056527	0.064821	0.015669	0.017967	0.94649	0.81297	0.053636	0.11399	0.014867	0.031597
2.2	0.73459	0.75026	0.69605	0.049625	0.052849	0.013755	0.014649	0.67965	0.66902	0.056527	0.059755	0.015669	0.016563	0.94649	0.77135	0.053636	0.16024	0.014867	0.044416
2.3	0.75267	0.75026	0.68658	0.049625	0.049852	0.013755	0.013818	0.67965	0.68741	0.056527	0.077902	0.015669	0.021593	0.94649	0.70216	0.053636	0.16202	0.014867	0.044911
2.4	0.76011	0.75026	0.68579	0.049625	0.055991	0.013755	0.01552	0.67965	0.67915	0.056527	0.074054	0.015669	0.020527	0.94649	0.71676	0.053636	0.15733	0.014867	0.04361
2.5	0.77461	0.75026	0.69974	0.049625	0.040375	0.013755	0.011192	0.67965	0.66976	0.056527	0.054553	0.015669	0.015121	0.94649	0.78162	0.053636	0.10642	0.014867	0.029498
2.6	0.78382	0.75026	0.68026	0.049625	0.052782	0.013755	0.014631	0.67965	0.64859	0.056527	0.065188	0.015669	0.018069	0.94649	0.78378	0.053636	0.13683	0.014867	0.037929
2.7	0.79168	0.75026	0.67921	0.049625	0.062506	0.013755	0.017326	0.67965	0.6645	0.056527	0.076447	0.015669	0.02119	0.94649	0.71405	0.053636	0.21071	0.014867	0.058405
2.8	0.79998	0.75026	0.67895	0.049625	0.047627	0.013755	0.013202	0.67965	0.6627	0.056527	0.067186	0.015669	0.018623	0.94649	0.73838	0.053636	0.15448	0.014867	0.04282
2.9	0.80707	0.75026	0.68184	0.049625	0.056995	0.013755	0.015798	0.67965	0.69478	0.056527	0.086472	0.015669	0.023969	0.94649	0.66162	0.053636	0.18398	0.014867	0.050995
3	0.81558	0.75026	0.66395	0.049625	0.056841	0.013755	0.015756	0.67965	0.65886	0.056527	0.072912	0.015669	0.02021	0.94649	0.66865	0.053636	0.16908	0.014867	0.046865
3.1	0.81964	0.75026	0.65342	0.049625	0.051313	0.013755	0.014223	0.67965	0.66434	0.056527	0.063776	0.015669	0.017678	0.94649	0.59243	0.053636	0.16132	0.014867	0.044715
3.2	0.82348	0.75026	0.66763	0.049625	0.05302	0.013755	0.014696	0.67965	0.67753	0.056527	0.062336	0.015669	0.017279	0.94649	0.62541	0.053636	0.17137	0.014867	0.047501
3.3	0.82637	0.75026	0.64026	0.049625	0.069707	0.013755	0.019322	0.67965	0.65559	0.056527	0.075422	0.015669	0.020906	0.94649	0.57027	0.053636	0.23588	0.014867	0.065384
3.4	0.83187	0.75026	0.64342	0.049625	0.060047	0.013755	0.016644	0.67965	0.66393	0.056527	0.064357	0.015669	0.017839	0.94649	0.57027	0.053636	0.21527	0.014867	0.059669
3.5	0.83298	0.75026	0.61974	0.049625	0.077148	0.013755	0.021384	0.67965	0.61114	0.056527	0.11775	0.015669	0.032638	0.94649	0.51622	0.053636	0.25519	0.014867	0.070736
3.6	0.83712	0.75026	0.62263	0.049625	0.05881	0.013755	0.016301	0.67965	0.64027	0.056527	0.076309	0.015669	0.021152	0.94649	0.54811	0.053636	0.22494	0.014867	0.062349
3.7	0.83997	0.75026	0.61316	0.049625	0.07202	0.013755	0.019963	0.67965	0.6293	0.056527	0.095908	0.015669	0.026584	0.94649	0.49243	0.053636	0.24476	0.014867	0.067843
3.8	0.83995	0.75026	0.62289	0.049625	0.07484	0.013755	0.020745	0.67965	0.62129	0.056527	0.10373	0.015669	0.028753	0.94649	0.55568	0.053636	0.23877	0.014867	0.066183
3.9	0.84366	0.75026	0.62658	0.049625	0.066345	0.013755	0.01839	0.67965	0.65541	0.056527	0.08648	0.015669	0.023971	0.94649	0.52324	0.053636	0.25134	0.014867	0.069667
4	0.84583	0.75026	0.62289	0.049625	0.070713	0.013755	0.019601	0.67965	0.62294	0.056527	0.084363	0.015669	0.023384	0.94649	0.54757	0.053636	0.2583	0.014867	0.071598
4.1	0.84621	0.75026	0.665	0.049625	0.070141	0.013755	0.019442	0.67965	0.67507	0.056527	0.066485	0.015669	0.018429	0.94649	0.59892	0.053636	0.24415	0.014867	0.067676
4.2	0.8498	0.75026	0.66789	0.049625	0.071752	0.013755	0.019889	0.67965	0.67117	0.056527	0.12313	0.015669	0.03413	0.94649	0.6173	0.053636	0.25432	0.014867	0.070494
4.3	0.85035	0.75026	0.65184	0.049625	0.067732	0.013755	0.018774	0.67965	0.64426	0.056527	0.065294	0.015669	0.018099	0.94649	0.62919	0.053636	0.24001	0.014867	0.066526
4.4	0.85002	0.75026	0.66447	0.049625	0.080246	0.013755	0.022243	0.67965	0.66871	0.056527	0.0806	0.015669	0.022341	0.94649	0.61297	0.053636	0.24797	0.014867	0.068735
4.5	0.85299	0.75026	0.68263	0.049625	0.070815	0.013755	0.019629	0.67965	0.67802	0.056527	0.074376	0.015669	0.020616	0.94649	0.65243	0.053636	0.19771	0.014867	0.054801
4.6	0.85479	0.75026	0.64526	0.049625	0.078452	0.013755	0.021746	0.67965	0.65873	0.056527	0.073306	0.015669	0.020319	0.94649	0.55784	0.053636	0.25423	0.014867	0.070468
4.7	0.85452	0.75026	0.67316	0.049625	0.079008	0.013755	0.0219	0.67965	0.6717	0.056527	0.06736	0.015669	0.018671	0.94649	0.63459	0.053636	0.23652	0.014867	0.065559
4.8	0.85509	0.75026	0.67263	0.049625	0.088391	0.013755	0.024501	0.67965	0.67388	0.056527	0.10445	0.015669	0.028952	0.94649	0.61838	0.053636	0.24478	0.014867	0.067849
4.9	0.85606	0.75026	0.65053	0.049625	0.085569	0.013755	0.023719	0.67965	0.63796	0.056527	0.10583	0.015669	0.029333	0.94649	0.61243	0.053636	0.24605	0.014867	0.068202
5	0.85734	0.75026	0.665	0.049625	0.077283	0.013755	0.021422	0.67965	0.67007	0.056527	0.085798	0.015669	0.023782	0.94649	0.60324	0.053636	0.24971	0.014867	0.069216
